{
  "loopback-component-explorer": {
    "mountPath": "/explorer",
    "generateOperationScopedModels": true,
    "info": {
      "title": "ING-Invoicing",
      "description": "API Docs for ING-Invoicing system",
      "contact": "dev@dreamscraft.tech"
    }
  }
}
